3. Running the inference • TOSCA
…
#> 1        1.9e-07
#> 2        2.1e-07
#> 3        2.3e-07
#> 4        2.5e-07
#> 5        2.5e-07
#> 6        2.5e-07
#> 7        2.1e-07
#> 8        2.2e-07
#> 9        2.4e-07
#> 10       2.0e-07
#> # ... with 39990 more draws, and 27 more variables
#> # ... hidden reserved variables {'.chain', '.iteration', '.draw'}
#> 
#> $timing_posteriors
#> # A tibble: 40,000 × 5
#>    t_eca     t_mrca_primary t_dormancy_end t_mrca    `t_cna[1]`
#>    <chr>     <chr>          <chr>          <chr>     <chr>     
#>  1 2012-2-23 2012-2-24      2014-3-17      2014-7-21 2014-7-5  
#>  2 2012-2-26 2012-2-26      2014-4-9       2014-8-11 2014-7-28 
#>  3 2012-5-22 2012-5-22      2013-12-23     2014-7-23 2014-7-16 
#>  4 2012-2-19 2012-2-19      2014-2-21      2014-7-18 2014-6-30 
#>  5 2012-2-23 2012-2-23      2014-2-24      2014-7-16 2014-6-27 
#>  6 2012-3-15 2012-3-15      2014-2-21      2014-8-1  2014-7-9  
#>  7 2012-1-15 2012-1-15      2014-4-5       2014-6-28 2014-6-24 
#>  8 2012-3-23 2012-3-23      2014-1-22      2014-7-7  2014-6-25 
#>  9 2012-4-2  2012-4-3       2014-3-23      2014-9-10 2014-9-4  
#> 10 2012-6-3  2012-6-3       2014-1-9       2014-8-24 2014-8-9  
#> # ℹ 39,990 more rows
#> 
#> $posterior_predictive_checks
#> # A tibble: 40,000 × 5
#>    m_clock_primary m_clock m_gcv alpha  beta
#>              <dbl>   <dbl> <dbl> <dbl> <dbl>
#>  1               4     852  1270    21     2
#>  2               3     808  1298    12     0
#>  3               0     860  1294    24     1
#>  4               0     903  1223    13     2
#>  5               1     755  1156    13     3
#>  6               3     822  1415    17     2
#>  7               2     871  1297    21     1
#>  8               2     814  1286    19     3
#>  9               1     804  1276    13     1
#> 10               1     873  1380    17     7
#> # ℹ 39,990 more rows
#> 
#> $rates_posteriors
#> # A tibble: 40,000 × 2
#>    omega mu_Ganciclovir
#>    <dbl>          <dbl>
#>  1 12.1     0.000000193
#>  2 12.0     0.000000206
#>  3 11.1     0.000000227
#>  4  9.47    0.000000246
#>  5  9.43    0.000000245
#>  6  9.85    0.000000250
#>  7 11.5     0.000000210
#>  8 10.3     0.000000222
#>  9 11.1     0.000000239
#> 10 12.0     0.000000199
#> # ℹ 39,990 more rows
…
